"Resource/UI/Addons.res"
{
	"Addons"
	{
		"ControlName"			"Frame"
		"fieldName"				"Addons"
		"xpos"					"0"
		"ypos"					"0"
		"wide"					"f0"
		"tall"					"510"
		"autoResize"			"0"
		"pinCorner"				"0"
		"visible"				"1"
		"enabled"				"1"
		"tabPosition"			"0"
	}

	"Divider1"
	{
		"ControlName"			"ImagePanel"
		"fieldName"				"Divider1"
		"xpos"					"c-297"
		"ypos"					"110"
		"zpos"					"2"
		"wide"					"298"
		"tall"					"2"
		"autoResize"			"0"
		"pinCorner"				"0"
		"visible"				"1"
		"enabled"				"1"
		"tabPosition"			"0"
		"image"					"divider_gradient"
		"scaleImage"			"1"
	}

	"GplAddons"
	{
		"ControlName"			"GenericPanelList"
		"fieldName"				"GplAddons"
		"xpos"					"c-285"
		"ypos"					"110"
		"wide"					"299"
		"tall"					"277"
		"zpos"					"1"
		"autoResize"			"1"
		"pinCorner"				"0"
		"visible"				"1"
		"enabled"				"1"
		"tabPosition"			"1"
		"panelBorder"			"1"
		"navUp"					"BtnCancel"
		"navDown"				"DrpFilterTags"
	}

	"LblNoAddonsFiltered"
	{
		"ControlName"			"Label"
		"fieldName"				"LblNoAddonsFiltered"
		"xpos"					"c-270"
		"ypos"					"220"
		"wide"					"274"
		"tall"					"60" 
		"zpos"					"5"
		"autoResize"			"0"
		"pinCorner"				"0"
		"visible"				"0"
		"enabled"				"1"
		"tabPosition"			"0"
		"Font"					"DefaultMedium"
		"textAlignment"			"center"
		"labelText"				"#L4D360UI_No_Addons_Filtered"
	}

	"Divider2"
	{
		"ControlName"			"ImagePanel"
		"fieldName"				"Divider2"
		"xpos"					"c-297"
		"ypos"					"385"
		"zpos"					"2"
		"wide"					"298"
		"tall"					"2"
		"autoResize"			"0"
		"pinCorner"				"0"
		"visible"				"1"
		"enabled"				"1"
		"tabPosition"			"0"
		"image"					"divider_gradient"
		"scaleImage"			"1"
	}

	"ImgAddonIconSpinner"
	{
		"ControlName"			"ImagePanel"
		"fieldName"				"ImgAddonIconSpinner"
		"xpos"					"c+55"
		"ypos"					"125"
		"zpos"					"10"
		"wide"					"32"
		"tall"					"32"
		"autoResize"			"0"
		"pinCorner"				"0"
		"visible"				"1"
		"enabled"				"1"
		"tabPosition"			"0"
		"scaleImage"			"1"
		"image"					"common/l4d_spinner"
	}

	"ImgAddonIcon"
	{
		"ControlName"			"ImagePanel"
		"fieldName"				"ImgAddonIcon"
		"xpos"					"c+15"
		"ypos"					"110"
		"zpos"					"1"
		"wide"					"112"
		"tall"					"63"
		"autoResize"			"0"
		"pinCorner"				"0"
		"visible"				"1"
		"enabled"				"1"
		"tabPosition"			"0"
		"scaleImage"			"1"
	}

	"ImgAddonIconOverlay"
	{
		"ControlName"			"ImagePanel"
		"fieldName"				"ImgAddonIconOverlay"
		"image"					"workshop_overlay"
		"xpos"					"c+15"
		"ypos"					"110"
		"zpos"					"2"
		"wide"					"112"
		"tall"					"63"
		"autoResize"			"0"
		"pinCorner"				"0"
		"visible"				"1"
		"enabled"				"1"
		"tabPosition"			"0"
		"scaleImage"			"1"
	}

	"LblName"
	{
		"ControlName"			"Label"
		"fieldName"				"LblName"
		"xpos"					"c+129"
		"ypos"					"109"
		"wide"					"265"
		"tall"					"18"
		"zpos"					"1"
		"autoResize"			"0"
		"pinCorner"				"0"
		"visible"				"1"
		"enabled"				"1"
		"tabPosition"			"0"
		"font"					"DefaultVerySmall"
		"textAlignment"			"north-west"
	}

	"LblAuthor"
	{
		"ControlName"			"Label"
		"fieldName"				"LblAuthor"
		"xpos"					"c+129"
		"ypos"					"120"
		"wide"					"265"
		"tall"					"15"
		"zpos"					"1"
		"autoResize"			"0"
		"pinCorner"				"0"
		"visible"				"1"
		"enabled"				"1"
		"tabPosition"			"0"
		"Font"					"DefaultVerySmall"
		"textAlignment"			"north-west"
		"wrap"					"0"
		"dulltext"				"1"
	}

	"LblType"
	{
		"ControlName"			"Label"
		"fieldName"				"LblType"
		"xpos"					"c+129"
		"ypos"					"131"
		"wide"					"170"
		"tall"					"15"
		"zpos"					"1"
		"autoResize"			"0"
		"pinCorner"				"0"
		"visible"				"1"
		"enabled"				"1"
		"tabPosition"			"0"
		"Font"					"DefaultVerySmall"
		"textAlignment"			"north-west"
		"wrap"					"0"
		"dulltext"				"1"
	}

	"BtnVisitWorkshop"
	{
		"ControlName"			"L4D360HybridButton"
		"fieldName"				"BtnVisitWorkshop"
		"xpos"					"c+129"
		"ypos"					"155"
		"zpos"					"2"
		"wide"					"250"
		"tall"					"15"
		"autoResize"			"1"
		"pinCorner"				"0"
		"visible"				"0"
		"enabled"				"1"
		"tabPosition"			"0"
		"wrap"					"1"
		"labelText"				"#L4D360UI_ADDON_VISIT_WORKSHOP" // [Valve] "VIEW ON WORKSHOP"
		"style"					"RedButton" // [Valve] actually teal!
		"command"				"VisitWorkshop"
		"proportionalToParent"	"1"
		"usetitlesafe" 			"0"
		EnabledTextInsetX		"2"
		DisabledTextInsetX		"2"
		FocusTextInsetX			"2"
		OpenTextInsetX			"2"
		"allcaps"				"1"
	}

	"DescriptionDivider1"
	{
		"ControlName"			"ImagePanel"
		"fieldName"				"DescriptionDivider1"
		"xpos"					"c+104"
		"ypos"					"172"
		"zpos"					"0"
		"wide"					"200"
		"tall"					"1"
		"autoResize"			"0"
		"pinCorner"				"0"
		"visible"				"1"
		"enabled"				"1"
		"tabPosition"			"0"
		"image"					"divider_gradient"
		"scaleImage"			"1"
	}

	"LblDescription"
	{
		"ControlName"			"Label"
		"fieldName"				"LblDescription"
		"xpos"					"c+16"
		"ypos"					"174"
		"zpos"					"1"
		"wide"					"290"
		"tall"					"210"
		"autoResize"			"0"
		"pinCorner"				"0"
		"visible"				"1"
		"enabled"				"1"
		"tabPosition"			"0"
		"Font"					"DefaultVerySmall"
		"textAlignment"			"north-west"
		"wrap"					"1"
		"brighttext"			"1"
		"dulltext"				"0"
	}

	"DescriptionDivider2"
	{
		"ControlName"			"ImagePanel"
		"fieldName"				"DescriptionDivider2"
		"xpos"					"c+104"
		"ypos"					"384"
		"zpos"					"0"
		"wide"					"200"
		"tall"					"1"
		"autoResize"			"0"
		"pinCorner"				"0"
		"visible"				"1"
		"enabled"				"1"
		"tabPosition"			"0"
		"image"					"divider_gradient"
		"scaleImage"			"1"
	}

	"LblFilters"
	{
		"ControlName"			"Label"
		"fieldName"				"LblFilters"
		"xpos"					"c-280"
		"ypos"					"387"
		"zpos"					"2"
		"wide"					"255"
		"tall"					"15"
		"autoResize"			"1"
		"pinCorner"				"0"
		"visible"				"1"
		"enabled"				"1"
		"tabPosition"			"0"
		"labelText"				"#L4D360UI_Addons_Filter_Label"
		"textAlignment"			"north-west"
		"Font"					"DefaultMedium"
		"fgcolor_override"		"MediumGray"
		"AllCaps"				"1"
	}

	"DrpFilterTags"
	{
		"ControlName"			"DropDownMenu"
		"fieldName"				"DrpFilterTags"
		"xpos"					"c-265"
		"ypos"					"402"
		"zpos"					"1"
		"wide"					"320"
		"tall"					"15"
		"visible"				"1"
		"enabled"				"1"
		"navUp"					"GplAddons"
		"navDown"				"BtnBrowseWorkshop"

		// [Valve] button and label
		"BtnDropButton"
		{
			"ControlName"			"L4D360HybridButton"
			"fieldName"				"BtnDropButton"
			"xpos"					"0"
			"ypos"					"0"
			"zpos"					"2"
			"wide"					"220"
			"wideatopen"			"200"
			"tall"					"15"
			"autoResize"			"1"
			"pinCorner"				"0"
			"visible"				"1"
			"enabled"				"1"
			"tabPosition"			"0"
			"labelText"				"#L4D360UI_Addons_Filter_Tags"
			"style"					"DropDownButton"
			"command"				"FlmFilterTags"
			"allcaps"				"1"
		}
	}

	"FlmFilterTags"
	{
		"ControlName"			"FlyoutMenu"
		"fieldName"				"FlmFilterTags"
		"visible"				"0"
		"wide"					"0"
		"tall"					"0"
		"zpos"					"4"
		"InitialFocus"			"BtnAny"
		"ResourceFile"			"resource/UI/L4D360UI/DropDownAddonsFilterTags.res"
	}

	"BtnBrowseWorkshop"
	{
		"ControlName"			"L4D360HybridButton"
		"fieldName"				"BtnBrowseWorkshop"
		"xpos"					"c-280"
		"ypos"					"425"
		"zpos"					"2"
		"wide"					"250"
		"tall"					"15"
		"autoResize"			"1"
		"pinCorner"				"0"
		"visible"				"1"
		"enabled"				"1"
		"tabPosition"			"0"
		"wrap"					"1"
		"labelText"				"#L4D360UI_ADDON_BROWSE_WORKSHOP"
		"style"					"MainMenuSmallButton" // [Valve] actually teal!
		"command"				"BrowseWorkshop"
		"proportionalToParent"	"1"
		"usetitlesafe" 			"0"
		EnabledTextInsetX		"2"
		DisabledTextInsetX		"2"
		FocusTextInsetX			"2"
		OpenTextInsetX			"2"
		"allcaps"				"1"
		"navUp"					"DrpFilterTags"
		"navDown"					"BtnCancel"
	}

	"BtnCancel"
	{
		"ControlName"			"L4D360HybridButton"
		"fieldName"				"BtnCancel"
		"xpos"					"c-280"
		"ypos"					"440"
		"zpos"					"1"
		"wide"					"252"
		"tall"					"15"
		"autoResize"			"1"
		"pinCorner"				"0"
		"visible"				"1"
		"enabled"				"1"
		"tabPosition"			"0"
		"wrap"					"1"
		"labelText"				"#L4D360UI_Done"
		"tooltiptext"			"#L4D360UI_Tooltip_Back"
		"style"					"MainMenuSmallButton"
		"command"				"Back"
		"proportionalToParent"	"1"
		"usetitlesafe" 			"0"
		EnabledTextInsetX		"2"
		DisabledTextInsetX		"2"
		FocusTextInsetX			"2"
		OpenTextInsetX			"2"
		"allcaps"				"1"
		"navUp"					"BtnBrowseWorkshop"
		"navDown"				"GplAddons"
	}
}