"Resource/UI/MModesFlyout.res"
{
	"PnlBackground"
	{
		"ControlName"			"Panel"
		"fieldName"				"PnlBackground"
		"xpos"					"0"
		"ypos"					"0"
		"zpos"					"-1"
		"wide"					"140"
		"tall"					"85"
		"visible"				"1"
		"enabled"				"1"
		"paintbackground"		"1"
		"paintborder"			"1"
	}

	"BtnScavenge"
	{
		"ControlName"			"L4D360HybridButton"
		"fieldName"				"BtnScavenge"
		"xpos"					"0"
		"ypos"					"0"
		"wide"					"150"
		"tall"					"20"
		"autoResize"			"1"
		"pinCorner"				"0"
		"visible"				"1"
		"enabled"				"1"
		"tabPosition"			"0"
		"wrap"					"1"
		"navUp"					"BtnVersusSurvival"
		"navDown"				"BtnRealism"
		"labelText"				"#L4D360UI_Mode_Scavenge"
		"style"					"FlyoutMenuButton"
		"command"				"CustomMatch_scavenge"
	}

	"BtnRealism"
	{
		"ControlName"			"L4D360HybridButton"
		"fieldName"				"BtnRealism"
		"xpos"					"0"
		"ypos"					"20"
		"wide"					"150"
		"tall"					"20"
		"autoResize"			"1"
		"pinCorner"				"0"
		"visible"				"1"
		"enabled"				"1"
		"tabPosition"			"0"
		"wrap"					"1"
		"navUp"					"BtnScavenge"
		"navDown"				"BtnRealismVersus"
		"labelText"				"#L4D360UI_Mode_Realism"
		"style"					"FlyoutMenuButton"
		"command"				"CustomMatch_realism"
	}

	"BtnRealismVersus"
	{
		"ControlName"			"L4D360HybridButton"
		"fieldName"				"BtnRealismVersus"
		"xpos"					"0"
		"ypos"					"40"
		"wide"					"150"
		"tall"					"20"
		"autoResize"			"1"
		"pinCorner"				"0"
		"visible"				"1"
		"enabled"				"1"
		"tabPosition"			"0"
		"wrap"					"1"
		"navUp"					"BtnRealism"
		"navDown"				"BtnVersusSurvival"
		"labelText"				"#L4D360UI_Mode_Mutation12"
		"style"					"FlyoutMenuButton"
		"command"				"CustomMatch_mutation12"
	}

	"BtnVersusSurvival"
	{
		"ControlName"			"L4D360HybridButton"
		"fieldName"				"BtnVersusSurvival"
		"xpos"					"0"
		"ypos"					"60"
		"wide"					"150"
		"tall"					"20"
		"autoResize"			"1"
		"pinCorner"				"0"
		"visible"				"1"
		"enabled"				"1"
		"tabPosition"			"0"
		"wrap"					"1"
		"navUp"					"BtnRealismVersus"
		"navDown"				"BtnScavenge"
		"labelText"				"#L4D360UI_Mode_Mutation15"
		"style"					"FlyoutMenuButton"
		"command"				"CustomMatch_mutation15"
	}
}