"Resource/UI/FoundPublicGames.res"
{
	"FoundPublicGames"
	{
		"ControlName"			"Frame"
		"fieldName"				"FoundPublicGames"
		"xpos"					"0"
		"ypos"					"0"
		"wide"					"f0"
		"tall"					"447"
		"autoResize"			"0"
		"pinCorner"				"0"
		"visible"				"1"
		"enabled"				"1"
		"tabPosition"			"0"
	}

	"ImgBackground"
	{
		"ControlName"			"L4DMenuBackground"
		"fieldName"				"ImgBackground"
		"xpos"					"0"
		"ypos"					"94"
		"zpos"					"-1"
		"wide"					"f0"
		"tall"					"312"
		"autoResize"			"0"
		"pinCorner"				"0"
		"visible"				"1"
		"enabled"				"1"
		"tabPosition"			"0"
		"fillColor"				"0 0 0 0"
	}

	"LblCampaign"
	{
		"ControlName"			"Label"
		"fieldName"				"LblCampaign"
		"xpos"					"c90"
		"ypos"					"235"
		"zpos"					"2"
		"wide"					"200"
		"tall"					"12"
		"autoResize"			"0"
		"pinCorner"				"0"
		"visible"				"1"
		"enabled"				"1"
		"tabPosition"			"0"
		"labelText"				""
		"textAlignment"			"north-west"
		"Font"					"DefaultMedium"
		"fgcolor_override"		"TextYellow"
	}

	"ImgLevelImage"
	{
		"ControlName"			"ImagePanel"
		"fieldName"				"ImgLevelImage"
		"xpos"					"c90"
		"ypos"					"142"
		"wide"					"160"
		"tall"					"80"
		"scaleImage"			"1"
		"pinCorner"				"0"
		"visible"				"0"
		"enabled"				"1"
		"tabPosition"			"0"
		"image"					"maps/any"
		"scaleImage"			"1"
	}

	"ImgFrame"
	{
		"ControlName"			"ImagePanel"
		"fieldName"				"ImgFrame"
		"xpos"					"c85"
		"ypos"					"132"
		"wide"					"196"
		"tall"					"98"
		"scaleImage"			"1"
		"pinCorner"				"0"
		"visible"				"1"
		"enabled"				"1"
		"tabPosition"			"0"
		"image"					"campaignFrame"
		"scaleImage"			"1"
	}

	"LblAuthor"
	{
		"ControlName"			"Label"
		"fieldName"				"LblAuthor"
		"xpos"					"c90"
		"zpos"					"2"
		"ypos"					"250"
		"wide"					"200"
		"tall"					"12"
		"autoResize"			"0"
		"pinCorner"				"0"
		"visible"				"0"
		"enabled"				"1"
		"tabPosition"			"0"
		"labelText"				""
		"textAlignment"			"north-west"
		"Font"					"DefaultMedium"
		"fgcolor_override"		"TextYellow"
	}

	"LblGameDifficulty"
	{
		"ControlName"			"Label"
		"fieldName"				"LblGameDifficulty"
		"xpos"					"c90"
		"ypos"					"265"
		"zpos"					"2"
		"wide"					"200"
		"tall"					"12"
		"autoResize"			"0"
		"pinCorner"				"0"
		"visible"				"0"
		"enabled"				"1"
		"tabPosition"			"0"
		"labelText"				""
		"textAlignment"			"north-west"
		"Font"					"DefaultMedium"
		"fgcolor_override"		"TextYellow"
	}

	"LblGameStatus"
	{
		"ControlName"			"Label"
		"fieldName"				"LblGameStatus"
		"xpos"					"c90"
		"ypos"					"280"
		"zpos"					"2"
		"wide"					"200"
		"tall"					"12"
		"autoResize"			"0"
		"pinCorner"				"0"
		"visible"				"1"
		"enabled"				"1"
		"tabPosition"			"0"
		"labelText"				""
		"textAlignment"			"north-west"
		"Font"					"DefaultMedium"
		"fgcolor_override"		"TextYellow"
	}

	"LblNewVersion"
	{
		"ControlName"			"Label"
		"fieldName"				"LblNewVersion"
		"xpos"					"c90"
		"ypos"					"375"
		"zpos"					"2"
		"wide"					"200"
		"tall"					"12"
		"autoResize"			"0"
		"pinCorner"				"0"
		"visible"				"1"
		"enabled"				"1"
		"tabPosition"			"0"
		"labelText"				"#L4D360UI_FoundGames_DownloadNewVersion"
		"textAlignment"			"north-west"
		"Font"					"DefaultMedium"
		"fgcolor_override"		"TextYellow"
	}

	"BtnWebsite" // Addon Website
	{
		"ControlName"			"L4D360HybridButton"
		"fieldName"				"BtnWebsite"
		"xpos"					"c90"
		"ypos"					"360"
		"zpos"					"2"
		"wide"					"200"
		"tall"					"15"
		"autoResize"			"0"
		"pinCorner"				"0"
		"visible"				"0"
		"enabled"				"1"
		"tabPosition"			"0"
		"command"				"Website"
		"labelText"				""
		"textAlignment"			"north-west"
		"style"					"MainMenuSmallButton"
		"navLeft"				"GplGames"
		"navDown"				"BtnJoinSelected"
	}

	"IconForwardArrow"
	{
		"ControlName"			"ImagePanel"
		"fieldName"				"IconForwardArrow"
		"xpos"					"c75"
		"ypos"					"345"
		"wide"					"15"
		"tall"					"15"
		"scaleImage"			"1"
		"pinCorner"				"0"
		"visible"				"0"
		"enabled"				"1"
		"tabPosition"			"0"
		"image"					"icon_button_arrow_right"
		"scaleImage"			"1"
	}

	"BtnJoinSelected"
	{
		"ControlName"			"L4D360HybridButton"
		"fieldName"				"BtnJoinSelected"
		"xpos"					"c90"
		"ypos"					"345"
		"zpos"					"2"
		"wide"					"200"
		"tall"					"15"
		"autoResize"			"1"
		"pinCorner"				"0"
		"visible"				"0"
		"enabled"				"1"
		"tabPosition"			"0"
		"wrap"					"1"
		"labelText"				"#L4D360UI_FoundGames_JoinGame"
		"tooltiptext"			"#L4D360UI_JoinGame"
		"style"					"MainMenuSmallButton"
		"command"				"JoinSelected"
		"EnabledTextInsetX"		"2"
		"DisabledTextInsetX"	"2"
		"FocusTextInsetX"		"2"
		"OpenTextInsetX"		"2"
		"navLeft"				"GplGames"
		"navUp"					"BtnWebsite"
		"navDown"				"BtnDownloadSelected"
	}

	"BtnDownloadSelected"
	{
		"ControlName"			"L4D360HybridButton"
		"fieldName"				"BtnDownloadSelected"
		"xpos"					"c90"
		"ypos"					"345"
		"zpos"					"2"
		"wide"					"140"
		"tall"					"15"
		"autoResize"			"1"
		"pinCorner"				"0"
		"visible"				"0"
		"enabled"				"0"
		"tabPosition"			"0"
		"wrap"					"1"
		"labelText"				"#L4D360UI_FoundGames_DownloadAddon"
		"tooltiptext"			"#L4D360UI_FoundGames_Join_Download"
		"style"					"RedMainButton"
		"command"				"DownloadSelected"
		"EnabledTextInsetX"		"2"
		"DisabledTextInsetX"	"2"
		"FocusTextInsetX"		"2"
		"OpenTextInsetX"		"2"
		"navLeft"				"GplGames"
		"navUp"					"BtnJoinSelected"
		"navDown"				"BtnWebsite"
	}

	"SearchingIcon"
	{
		"ControlName"			"ImagePanel"
		"fieldName"				"SearchingIcon"
		"xpos"					"r106"
		"ypos"					"27"
		"zpos"					"2"
		"wide"					"32"
		"tall"					"32"
		"pinCorner"				"0"
		"visible"				"1"
		"enabled"				"1"
		"tabPosition"			"0"
		"scaleImage"			"1"
		"image"					"common/l4d_spinner"
	}

	"LblNoGamesFound"
	{
		"ControlName"			"Label"
		"fieldName"				"LblNoGamesFound"
		"xpos"					"c-142"
		"ypos"					"90"
		"wide"					"380"
		"tall"					"20"
		"zpos"					"2"
		"autoResize"			"0"
		"pinCorner"				"0"
		"visible"				"1" 
		"enabled"				"1"
		"tabPosition"			"0"
		"labelText"				""	// [Valve] "No Campaign Games Found"
		"textAlignment"			"west"
		"Font"					"DefaultBold"
	}

	"LblSearching"
	{
		"ControlName"			"Label"
		"fieldName"				"LblSearching"
		"xpos"					"c-320"
		"ypos"					"38"
		"zpos"					"0"
		"wide"					"380"
		"tall"					"195"
		"zpos"					"2"
		"autoResize"			"0"
		"pinCorner"				"0"
		"visible"				"0" 
		"enabled"				"1"
		"tabPosition"			"0"
		"labelText"				""
		"textAlignment"			"center"
		"Font"					"MainBold"
	}

	"Divider1"
	{
		"ControlName"			"ImagePanel"
		"fieldName"				"Divider1"
		"xpos"					"c-320"
		"ypos"					"110"
		"zpos"					"-1"
		"wide"					"400"
		"tall"					"2"
		"autoResize"			"0"
		"pinCorner"				"0"
		"visible"				"1"
		"enabled"				"1"
		"tabPosition"			"0"
		"image"					"divider_gradient"
		"scaleImage"			"1"
	}

	"Divider2"
	{
		"ControlName"			"ImagePanel"
		"fieldName"				"Divider2"
		"xpos"					"c-320"
		"ypos"					"325"
		"zpos"					"-1"
		"wide"					"400"
		"tall"					"2"
		"autoResize"			"0"
		"pinCorner"				"0"
		"visible"				"1"
		"enabled"				"1"
		"tabPosition"			"0"
		"image"					"divider_gradient"
		"scaleImage"			"1"
	}

	"LblFilters"
	{
		"ControlName"			"Label"
		"fieldName"				"LblFilters"
		"xpos"					"c-280"
		"ypos"					"330"
		"zpos"					"2"
		"wide"					"255"
		"tall"					"15"
		"autoResize"			"1"
		"pinCorner"				"0"
		"visible"				"1"
		"enabled"				"1"
		"tabPosition"			"0"
		"labelText"				"#L4D360UI_FoundPublicGames_Filter_Label"
		"textAlignment"			"north-west"
		"Font"					"DefaultMedium"
		"fgcolor_override"		"MediumGray"
		"AllCaps"				"1"
	}

	"DrpFilterCampaign"
	{
		"ControlName"			"DropDownMenu"
		"fieldName"				"DrpFilterCampaign"
		"xpos"					"c-265"
		"ypos"					"345"
		"zpos"					"1"
		"wide"					"320"
		"tall"					"15"
		"visible"				"1"
		"enabled"				"1"
		"navUp"					"BtnFilters"
		"navDown"				"DrpFilterGameStatus"

		"BtnDropButton"
		{
			"ControlName"			"L4D360HybridButton"
			"fieldName"				"BtnDropButton"
			"xpos"					"0"
			"ypos"					"0"
			"zpos"					"2"
			"wide"					"320"
			"wideatopen"			"200"
			"tall"					"15"
			"autoResize"			"1"
			"pinCorner"				"0"
			"visible"				"1"
			"enabled"				"1"
			"tabPosition"			"0"
			"labelText"				"#L4D360UI_FoundPublicGames_Filter_Campaign"
			"tooltiptext"			"#L4D360UI_FoundPublicGames_Filter_Campaign_Tip"
			"style"					"DropDownButton"
			"command"				"FlmFilterCampaign"
			"allcaps"				"1"
		}
	}

	"FlmFilterCampaign"
	{
		"ControlName"			"FlyoutMenu"
		"fieldName"				"FlmFilterCampaign"
		"visible"				"0"
		"wide"					"0"
		"tall"					"0"
		"zpos"					"4"
		"InitialFocus"			"BtnAny"
		"ResourceFile"			"resource/UI/L4D360UI/DropDownFoundGamesFilterCampaign.res"
	}

	"DrpFilterGameStatus"
	{
		"ControlName"			"DropDownMenu"
		"fieldName"				"DrpFilterGameStatus"
		"xpos"					"c-265"
		"ypos"					"360"
		"zpos"					"1"
		"wide"					"320"
		"tall"					"15"
		"visible"				"1"
		"enabled"				"1"
		"navUp"					"DrpFilterCampaign"
		"navDown"				"DrpFilterDifficulty"

		"BtnDropButton"
		{
			"ControlName"		"L4D360HybridButton"
			"fieldName"			"BtnDropButton"
			"xpos"				"0"
			"ypos"				"0"
			"zpos"				"2"
			"wide"				"320"
			"wideatopen"		"200"
			"tall"				"15"
			"autoResize"		"1"
			"pinCorner"			"0"
			"visible"			"1"
			"enabled"			"1"
			"tabPosition"		"0"
			"labelText"			"#L4D360UI_FoundPublicGames_Filter_GameStatus"
			"tooltiptext"		"#L4D360UI_FoundPublicGames_Filter_GameStatus_Tip"
			"style"				"DropDownButton"
			"command"			"FlmFilterGameStatus"
			"allcaps"			"1"
		}
	}

	"FlmFilterGameStatus"
	{
		"ControlName"			"FlyoutMenu"
		"fieldName"				"FlmFilterGameStatus"
		"visible"				"0"
		"wide"					"0"
		"tall"					"0"
		"zpos"					"4"
		"InitialFocus"			"BtnAny"
		"ResourceFile"			"resource/UI/L4D360UI/DropDownFoundGamesFilterGameStatus.res"
	}

	"DrpFilterDifficulty"
	{
		"ControlName"			"DropDownMenu"
		"fieldName"				"DrpFilterDifficulty"
		"xpos"					"c-265"
		"ypos"					"375"
		"zpos"					"1"
		"wide"					"320"
		"tall"					"15"
		"visible"				"1"
		"enabled"				"1"
		"navUp"					"DrpFilterGameStatus"
		"navDown"				"BtnForceCreateLobby"

		"BtnDropButton"
		{
			"ControlName"			"L4D360HybridButton"
			"fieldName"				"BtnDropButton"
			"xpos"					"0"
			"ypos"					"0"
			"zpos"					"2"
			"wide"					"320"
			"wideatopen"			"200"
			"tall"					"15"
			"autoResize"			"1"
			"pinCorner"				"0"
			"visible"				"1"
			"enabled"				"1"
			"tabPosition"			"0"
			"labelText"				"#L4D360UI_FoundPublicGames_Filter_Difficulty"
			"tooltiptext"			"#L4D360UI_FoundPublicGames_Filter_Difficulty_Tip"
			"style"					"DropDownButton"
			"command"				"FlmFilterDifficulty"
			"allcaps"				"1"
		}
	}

	"FlmFilterDifficulty"
	{
		"ControlName"			"FlyoutMenu"
		"fieldName"				"FlmFilterDifficulty"
		"visible"				"0"
		"wide"					"0"
		"tall"					"0"
		"zpos"					"4"
		"InitialFocus"			"BtnAny"
		"ResourceFile"			"resource/UI/L4D360UI/DropDownFoundGamesFilterDifficulty.res"
	}

	"BtnForceCreateLobby"
	{
		"ControlName"			"L4D360HybridButton"
		"fieldName"				"BtnForceCreateLobby"
		"xpos"					"c-280"
		"ypos"					"400"
		"wide"					"400"
		"tall"					"15"
		"autoResize"			"1"
		"pinCorner"				"0"
		"visible"				"1"
		"enabled"				"1"
		"tabPosition"			"0"
		"wrap"					"1"
		"navUp"					"DrpFilterDifficulty"
		"navDown"				"BtnCancel"
		"labelText"				"#L4D360UI_GameSettings_Create_Lobby"
		"style"					"MainMenuSmallButton"
		"command"				"CreateGame"
	}

	"BtnCancel"
	{
		"ControlName"			"L4D360HybridButton"
		"fieldName"				"BtnCancel"
		"xpos"					"c-280"
		"ypos"					"415"
		"zpos"					"1"
		"wide"					"180"
		"tall"					"15"
		"autoResize"			"1"
		"pinCorner"				"0"
		"visible"				"1"
		"enabled"				"1"
		"tabPosition"			"0"
		"wrap"					"1"
		"labelText"				"#L4D360UI_Back_Caps"
		"tooltiptext"			"#L4D360UI_Tooltip_Back"
		"style"					"MainMenuSmallButton"
		"command"				"Back"
		"EnabledTextInsetX"		"2"
		"DisabledTextInsetX"	"2"
		"FocusTextInsetX"		"2"
		"OpenTextInsetX"		"2"
		"navRight"				"BtnJoinSelected"
		"navUp"					"BtnForceCreateLobby"
		"navDown"				"GplGames"
	}

	"GplGames"
	{
		"ControlName"			"GenericPanelList"
		"fieldName"				"GplGames"
		"xpos"					"c-320"
		"ypos"					"110"
		"zpos"					"0"
		"wide"					"400"
		"tall"					"217"
		"autoResize"			"1"
		"pinCorner"				"0"
		"visible"				"1"
		"enabled"				"1"
		"tabPosition"			"0"
		"bgcolor_override"		"32 32 32 255"
		"NoWrap"				"1"
		"panelBorder"			"2"
		"navRight"				"BtnJoinSelected"
		"navDown"				"BtnFilters"
		"navUp"					"BtnCancel"
	}
}