"Resource/UI/SoloFlyout.res"
{
	"PnlBackground"
	{
		"ControlName"			"Panel"
		"fieldName"				"PnlBackground"
		"xpos"					"0"
		"ypos"					"0"
		"zpos"					"-1"
		"wide"					"100"
		"tall"					"65"
		"visible"				"1"
		"enabled"				"1"
		"paintbackground"		"1"
		"paintborder"			"1"
	}

	"BtnSoloCoOp"
	{
		"ControlName"			"L4D360HybridButton"
		"fieldName"				"BtnSoloCoOp"
		"xpos"					"0"
		"ypos"					"0"
		"wide"					"150"
		"tall"					"20"
		"autoResize"			"1"
		"pinCorner"				"0"
		"visible"				"1"
		"enabled"				"1"
		"tabPosition"			"0"
		"wrap"					"1"
		"navUp"					"BtnSoloRealism"
		"navDown"				"BtnSoloSurvival"
		"labelText"				"#L4D360UI_FoundPublicGames_Filter_Campaign"
		"style"					"FlyoutMenuButton"
		"command"				"SoloPlay_coop" // [Ryker] SoloPlay and SoloPlay_CoOp are functionally the same. However, SoloPlay_CoOp, introduced with TLS, is officially supported now so let's use that.
	}

	"BtnSoloSurvival"
	{
		"ControlName"			"L4D360HybridButton"
		"fieldName"				"BtnSoloSurvival"
		"xpos"					"0"
		"ypos"					"20"
		"wide"					"150"
		"tall"					"20"
		"autoResize"			"1"
		"pinCorner"				"0"
		"visible"				"1"
		"enabled"				"1"
		"tabPosition"			"0"
		"wrap"					"1"
		"navUp"					"BtnSoloCoOp"
		"navDown"				"BtnSoloRealism"
		"labelText"				"#L4D360UI_Lobby_Survival"
		"style"					"FlyoutMenuButton"
		"command"				"SoloPlay_survival"
	}

	"BtnSoloRealism"
	{
		"ControlName"			"L4D360HybridButton"
		"fieldName"				"BtnSoloRealism"
		"xpos"					"0"
		"ypos"					"40"
		"wide"					"150"
		"tall"					"20"
		"autoResize"			"1"
		"pinCorner"				"0"
		"visible"				"1"
		"enabled"				"1"
		"tabPosition"			"0"
		"wrap"					"1"
		"navUp"					"BtnSoloSurvival"
		"navDown"				"BtnSoloCoOp"
		"labelText"				"#L4D_Realism"
		"style"					"FlyoutMenuButton"
		"command"				"SoloPlay_realism"
	}
}